ECON	  501	   University	  of	  Michigan	   Microeconomic	  Theory	  
Fall	  2015	   	  
Heng	  Liu	   hengliu@umich.edu	  
341	  Lorch	  Hall	   734-­‐764-­‐2966	   	   	   1.	  Class	  Information:	  	   	   Fall	  2015,	  8:30am-­‐10:00am	  Monday/Wednesday,	  Location:	  1401	  Mason	  Hall	   	   Website:	  http://hengliu.weebly.com/econ-­‐501-­‐microeconomic-­‐theory-­‐fall-­‐2015.html	   	   2.	  Contact	  Information:	  	   	   Office	  location:	  341	  Lorch	  Hall,	  office	  hour:	  Monday	  2-­‐3pm	  or	  by	  appointment,	  	   	   GSI:	  Hang	  Yu	   email:	  hangyu@umich.edu,	  	   office	  hours:	  TBD,	  discussion	  section:	  time	  and	  location	  TBD.	   (Write	  ECON	  501	  in	  the	  subject	  line	  of	  all	  emails	  to	  the	  GSI	  and	  me.)	   	   3.	  Course	  Description:	   	   Microeconomics	  studies	  individual	  decision-­‐making	  and	  its	  implications	  for	  various	   market	  phenomena.	  The	  intent	  of	  the	  course	  is	  to	  provide	  a	  rigorous	  development	   of	  the	  economic	  and	  analytical	  tools	  to	  study	  individual	  economic	  decisions	  (e.g.,	  how	   consumers	  make	  choices	  under	  resource	  constraints	  with	  or	  without	  uncertainty,	  how	   firms	  make	  decisions	  subject	  to	  technology	  constraints,	  etc.)	  and	  market	  behavior	  (e.g.,	   competitive	  markets,	  imperfectly	  competitive	  markets,	  and	  market	  failures).	   Applications	  include	  the	  economics	  of	  insurance,	  international	  trade,	  taxation,	  and	  other	   topics.	   	   4.	  Prerequisites:	   	   Econ	  501	  requires	  Econ	  401	  intermediate	  microeconomics	  or	  an	  equivalent	  course	  in	   introductory	  microeconomics.	  The	  mathematics	  requirement	  for	  this	  course	  is	  single-­‐ variable	  calculus.	  We	  will	  learn	  some	  elementary	  techniques	  from	  multi-­‐variable	   calculus	  that	  has	  nothing	  conceptually	  new.	  And	  we	  will	  also	  learn	  some	  optimization	   techniques,	  which	  are	  usually	  not	  covered	  in	  standard	  multi-­‐variable	  calculus.	  

	   5.	  Textbooks	  and	  Course	  Material:	  	   	   The	  required	  textbook	  is:	  Walter	  Nicholson	  and	  Christopher	  Snyder,	  Microeconomic	   Theory:	  Basic	  Principles	  and	  Extensions	  (Thomson/South-­‐Western,	  11th	  edition,	  2011).	   You	  may	  use	  the	  10th	  edition.	   	   You	  are	  also	  encouraged	  to	  read	  two	  other	  good	  textbooks:	   Hal	  Varian,	  Intermediate	  Microeconomics:	  A	  Modern	  Approach,	  9th	  edition.	   Jeffrey	  Perloff,	  Microeconomics:	  Theory	  and	  Applications	  with	  Calculus,	  3rd	  edition.	   	   In	  addition,	  I	  will	  post	  lecture	  slides	  on	  Canvas.	   	   6.	  Discussion	  Sections:	   	   There	  will	  be	  discussion	  sections	  by	  the	  GSI.	  The	  sections	  will	  primarily	  discuss	  the	  past	   problem	  sets	  and	  elaborate	  and	  discuss	  the	  material	  from	  the	  lectures.	  Discussion	   sections	  will	  meet	  weekly,	  beginning	  the	  second	  week	  of	  classes.	   	  	   7.	  Exams	  and	  Grading:	   	   There	  will	  be	  ten	  problem	  sets.	  The	  problem	  sets	  will	  account	  for	  20%	  of	  your	  final	  grade.	   When	  computing	  the	  average	  problem	  set	  score	  to	  enter	  your	  grade,	  your	  lowest	   individual	  score	  will	  be	  dropped.	  There	  will	  be	  two	  midterm	  exams	  and	  a	  final	  exam.	   Each	  midterm	  accounts	  for	  20%	  of	  your	  final	  grade.	  The	  final	  exam	  will	  account	  for	  40%	   of	  your	  final	  grade.	  All	  three	  exams	  are	  closed	  book.	   	   Problem	  sets:	  20%;	  Each	  of	  the	  two	  midterm	  exams:	  20%;	  Final	  exam:	  40%.	   	   Midterm	  1:	  October	  5th,	  Monday,	  8:40am	  -­‐	  10:00am	  (in	  class)	   Midterm	  2:	  November	  9th,	  Monday,	  8:40am	  -­‐	  10:00am	  (in	  class)	   Final:	  December	  18th,	  Friday,	  10:30am	  -­‐	  12:30pm	  (location:	  1401	  Mason	  Hall)	   	  
If	  you	  cannot	  perform	  assignments	  at	  these	  times,	  you	  should	  not	  elect	  this	  course.	   	   If	  you	  have	  questions	  about	  exam	  grading,	  you	  should	  first	  compare	  your	  answer	  to	  the	   posted	  solution.	  	  If	  you	  would	  like	  a	  score	  to	  be	  reconsidered,	  your	  next	  step	  is	  to	  give	   your	  exam	  and	  a	  written	  request,	  explaining	  why	  you	  think	  reconsideration	  is	   appropriate,	  to	  your	  GSI.	  Such	  requests	  must	  be	  confined	  to	  a	  single	  question.	  	  In	  order	   to	  consider	  all	  such	  requests	  together	  and	  in	  a	  timely	  manner,	  requests	  must	  be	   submitted	  by	  the	  end	  of	  the	  week	  following	  that	  in	  which	  exams	  are	   returned.	  	  Adjustments	  in	  partial	  credit	  are	  typically	  not	  made.	  	  If	  an	  adjustment	  is	  made,	   I	  will	  review	  the	  question	  and	  assign	  a	  replacement	  grade	  that	  may	  be	  higher	  or	  lower	  

than	  the	  original,	  and	  then	  will	  check	  whether	  other	  questions	  on	  the	  exam	  also	  warrant	   reconsideration.	   	   8.	  Problem	  sets	  (homework):	   	   There	  will	  be	  ten	  problem	  sets.	  Approximately	  every	  week,	  a	  new	  problem	  set	  with	  a	   due	  date	  will	  be	  posted	  on	  Canvas.	  Usually	  it	  will	  be	  posted	  on	  Monday	  and	  it	  is	  to	  be	   returned	  on	  the	  subsequent	  Monday	  in	  class	  by	  the	  end	  of	  the	  lecture.	  	  You	  can	   download	  them	  from	  this	  webpage	  on	  the	  dates	  they	  are	  assigned.	  Late	  problem	  sets	   will	  not	  be	  accepted.	  The	  problem	  sets	  will	  be	  returned	  in	  your	  discussion	  section.	  	   	   9.	  Policies:	   	   This	  course	  adheres	  to	  the	  default	  policies	  of	  the	  economics	  department.	  These	  are	   related	  to	  Academic	  Integrity,	  to	  Graded	  Assignments,	  and	  to	  Religious	  Holidays.	  The	   policies	  are	  posted	  at:	  
http://www.lsa.umich.edu/econ/undergraduatestudy/policiesandprocedures	   	   Academic	  Integrity	  is	  the	  most	  important	  prerequisite	  to	  this	  course.	  If	  you	  fail	  to	   behave	  at	  all	  times	  with	  complete	  academic	  integrity,	  you	  will	  fail	  this	  course.	   	   Disabilities:	  If	  you	  have	  a	  disability	  that	  warrants	  accommodation,	  please	  contact	  me	  by	   email	  before	  Monday,	  September	  21.	  Attached	  to	  your	  email	  should	  be	  the	  VISA	  you	   received	  from	  the	  Office	  of	  Services	  for	  Students	  with	  Disabilities.	   	   Please	  be	  courteous	  to	  others,	  do	  not	  use	  laptops	  in	  class	  and	  keep	  your	  cellphones	  in	   silence	  mode.	   	   10.	  Course	  Plan:	   	   I.	  INDIVIDUAL	  CHOICES	   	   -­‐	  Preferences	  and	  utility	  functions	  Sept.	  9	  Chapter	  1	  and	  Chapter	  3	   -­‐	  Constrained	  optimization	  Sept.	  14	  Chapter	  2	  and	  Chapter	  3	   Problem	  Set	  1	   -­‐	  Demand	  function	  Sept.	  16	  Chapter	  4	   -­‐	  Elasticity	  Sept.	  21	  Chapter	  4	  and	  Chapter	  5	   Problem	  Set	  2	   -­‐	  Labor	  supply	  Sept.	  23	  Chapter	  5	  	   -­‐	  Time	  Sept.	  28	  Chapter	  16	   Problem	  Set	  3	  

-­‐	  Consumer	  surplus	  Sept.	  30	  Chapter	  17	   -­‐-­‐-­‐-­‐-­‐-­‐-­‐-­‐-­‐-­‐-­‐-­‐-­‐-­‐-­‐-­‐-­‐-­‐-­‐-­‐-­‐-­‐-­‐-­‐-­‐-­‐-­‐-­‐-­‐-­‐-­‐-­‐-­‐-­‐-­‐-­‐-­‐-­‐-­‐-­‐-­‐-­‐-­‐-­‐-­‐-­‐-­‐-­‐-­‐-­‐-­‐-­‐-­‐-­‐	  Midterm	  1	  Oct.	  5	   -­‐	  Decision	  under	  uncertainty	  Oct.	  7,	  Oct.	  12	  Chapter	  7	   Problem	  Set	  4	   -­‐	  Foundation	  of	  utility	  Oct.	  14	  Chapter	  3	   (No	  class	  on	  Oct.	  19,	  fall	  break)	   	   	   II.	  FIRMS	   	   -­‐	  Production	  function	  Oct.	  21	  Chapter	  9	  and	  Chapter	  10	   -­‐	  Profit	  maximization	  Oct.	  26	  Chapter	  11	  	   Problem	  Set	  5	   	   	   III.	  COMPETITIVE	  MARKETS	   	   -­‐	  Partial	  equilibrium	  Oct.	  28	  Chapter	  12	   -­‐	  Efficiency	  of	  competitive	  equilibrium	  Nov.	  2	  Chapter	  13	   Problem	  Set	  6	   -­‐	  Existence	  of	  Competitive	  equilibrium	  Nov.	  4	  Chapter	  13	   -­‐-­‐-­‐-­‐-­‐-­‐-­‐-­‐-­‐-­‐-­‐-­‐-­‐-­‐-­‐-­‐-­‐-­‐-­‐-­‐-­‐-­‐-­‐-­‐-­‐-­‐-­‐-­‐-­‐-­‐-­‐-­‐-­‐-­‐-­‐-­‐-­‐-­‐-­‐-­‐-­‐-­‐-­‐-­‐-­‐-­‐-­‐-­‐-­‐-­‐-­‐-­‐-­‐-­‐-­‐	  Midterm	  2	  Nov.	  9	   	   	   IV.	  MARKET	  FAILURES	   	   -­‐	  Monopoly	  Nov.	  11	  Chapter	  14	   -­‐	  Oligopoly	  Nov.	  16	  Chapter	  15	   Problem	  Set	  7	   -­‐	  Public	  goods	  and	  externalities	  Nov.	  18	  Chapter	  19	   -­‐	  Adverse	  selection	  Nov.	  23	  Chapter	  18	  and	  Lecture	  notes	   Problem	  Set	  8	   -­‐	  Screening	  Nov.	  25	  Chapter	  14,	  Chapter	  18	  and	  Lecture	  notes	   -­‐	  Signaling	  Nov.	  30	  Chapter	  18	  and	  Lecture	  notes	   Problem	  Set	  9	   -­‐	  Moral	  hazard	  Dec.	  2	  Chapter	  18	  and	  Lecture	  notes	   -­‐	  Auctions	  Dec.	  7,	  Dec.	  9	  Chapter	  18	  and	  Lecture	  notes	   Problem	  Set	  10	   -­‐	  Review	  Dec.	  14	   Practice	  Questions	   -­‐-­‐-­‐-­‐-­‐-­‐-­‐-­‐-­‐-­‐-­‐-­‐-­‐-­‐-­‐-­‐-­‐-­‐-­‐-­‐-­‐-­‐-­‐-­‐-­‐-­‐-­‐-­‐-­‐-­‐-­‐-­‐-­‐-­‐-­‐-­‐-­‐-­‐-­‐-­‐-­‐-­‐-­‐-­‐-­‐-­‐-­‐-­‐-­‐-­‐-­‐-­‐-­‐-­‐-­‐-­‐-­‐	  Final	  Dec.	  18	  

