Math/Stats	  425	  –	  Section	  001	   Introduction	  to	  Probability	   	  
“It	  is	  remarkable	  that	  a	  science	  which	  began	  with	  the	  consideration	  of	  games	  of	  chance	   should	  have	  become	  the	  most	  important	  object	  of	  human	  knowledge.”	   -­‐-­‐	  Laplace	  in	  Théorie	  Analytique	  des	  Probabilitiés	  (1812).	   	   Location	   Monday	  Wednesday	  Friday	  8:00AM	  to	  9:00AM	  in	  260	  Weiser	  Hall	  (formerly	  Dennison	   Building).	  Lecture	  begins	  promptly	  at	  8:10AM.	   	   Course	  Synopsis	   This	  course	  introduces	  students	  to	  useful	  and	  interesting	  ideas	  of	  the	  mathematical	  theory	   of	  probability	  and	  to	  a	  number	  of	  applications	  of	  probability	  to	  a	  variety	  of	  fields	  including	   genetics,	  economics,	  geology,	  business,	  and	  engineering.	  The	  theory	  developed	  together	   with	  other	  mathematical	  tools	  such	  as	  combinatorics	  and	  calculus	  are	  applied	  to	  everyday	   problems.	  Concepts,	  calculations,	  and	  derivations	  are	  emphasized.	   	   Outline	  of	  Topics:	  
• counting	  and	  combinatorics	   • axiomatic	  probability	   • conditional	  probability	  and	  independence	   • random	  variables:	  definition,	  distributions,	  and	  expectation	   • discrete	  distributions;	  continuous	  distributions	   • joint	  distributions	  of	  random	  variables:	  sums	  of	  independent	  random	  variables,	  and	  
conditional	  distributions	  
• more	  on	  expectations:	  expectations	  of	  sums,	  covariance,	  variance	  of	  sums,	   correlations,	  conditional	  expectations.	  
• limit	  theorems:	  inequalities,	  weak	  law	  of	  large	  numbers,	  central	  limit	  theorem	   	   Instructor	   Dr.	  Adam	  R.	  Stinchcombe	   Office:	  1842	  East	  Hall	   Office	  phone:	  (76)3-­‐4703	   E-­‐mail:	  stinch@umich.edu	  (please	  include	  "Math	  425"	  in	  the	  subject	  of	  email)	   Office	  Hours:	  Mondays	  and	  Wednesdays	  at	  2:30PM	  -­‐	  4:00PM	  or	  by	  appointment	  in	  1842	   East	  Hall	   	   Tutoring	   The	  Math	  Lab	  (B860	  East	  Hall)	  is	  providing	  a	  tutor	  for	  our	  section,	  Benjamin	  Bray.	  His	  hours	   are	  Monday	  12:00PM-­‐2:00PM	  and	  Tuesday	  3:00PM-­‐4:00PM.	   	   CTools	  Website	   MATH	  425	  001	  F15	   	   	   	  

Prerequisites	  
In	  order	  to	  be	  successful	  in	  this	  course,	  it	  will	  be	  necessary	  to	  have	  a	  solid	  foundation	  in	   calculus	  (Math	  116	  and	  Math	  215).	  Please	  contact	  me	  if	  you	  feel	  that	  you	  may	  not	  be	  
adequately	  prepared	  for	  this	  course.	  
	  
Exams	   There	  will	  be	  one	  in-­‐class	  midterm	  exam	  on	  Wednesday,	  November	  4.	  Please	  contact	  me	  as	  
soon	  as	  possible	  if	  you	  have	  an	  unavoidable	  conflict	  with	  this	  date.	  The	  final	  exam	  has	  yet	  to	  
be	  scheduled.	  A	  time	  and	  place	  will	  be	  announced	  once	  available.	  The	  final	  exam	  is	  your	  last	  
opportunity	  to	  demonstrate	  proficiency	  in	  the	  course	  material.	  No	  extra	  credit	  assignments	   will	  be	  offered.	  
	  
Written	  Homework	  
There	  will	  be	  homework	  due	  weekly	  that	  will	  be	  assigned	  via	  the	  CTools	  website	  and	   announced	  in	  class.	  Physical	  copies	  of	  your	  problem	  solutions	  will	  be	  due	  in-­‐class	  on	  the	  
due	  date,	  typically	  Wednesdays.	  Late	  homework	  will	  not	  be	  accepted	  unless	  permission	  is	  
given	  ahead	  of	  time.	  For	  each	  problem	  set,	  a	  random	  subset	  of	  assigned	  problems	  will	  be	   graded.	  Sloppy	  work	  will	  be	  returned	  ungraded.	  You	  are	  encouraged	  to	  collaborate	  on	  
homework,	  but	  please	  write	  down	  your	  solutions	  individually.	  When	  computing	  the	  final	  
grade,	  the	  single	  lowest	  homework	  score	  will	  automatically	  be	  dropped	  and	  all	  assignments	  
will	  have	  equal	  weight.	   	  
Web	  Homework	  
There	  will	  be	  weekly	  web	  homework:	  https://instruct.math.lsa.umich.edu/webwork2/ma425-­‐001-­‐f15.	  
Additional	  solution	  attempts	  will	  not	  be	  provided	  for	  any	  reason.	  The	  lowest	  score	  will	   automatically	  be	  dropped	  in	  the	  final	  grade	  calculation.	  	  
	  
Grading	  Scheme	  
Course	  grades	  will	  be	  determined	  from	  the	  following	  components:	  written	  homework	  30%;	   web	  homework	  10%;	  i>clicker	  participation	  +5%;	  midterm	  exam	  20%;	  final	  exam	  40%.	  
	  
Textbook	   Required:	  “A	  First	  Course	  in	  Probability”	  by	  Sheldon	  Ross.	  Ninth	  edition.	  You	  may	  wish	  to	  
use	  an	  earlier	  edition	  as	  they	  have	  very	  similar	  content.	  Homework	  will	  be	  assigned	  from	  
the	  ninth	  edition	  so	  be	  sure	  to	  check	  that	  the	  problems	  are	  the	  same	  with	  your	  edition.	  
	   Testing	  Accommodations	  
If	  you	  think	  you	  need	  an	  accommodation	  for	  a	  disability,	  please	  let	  me	  know	  as	  soon	  as	  
possible.	  In	  particular,	  a	  Verified	  Individualized	  Services	  and	  Accommodations	  (VISA)	  form	  
must	  be	  provided	  to	  me	  at	  least	  two	  weeks	  prior	  to	  the	  need	  for	  a	  test	  accommodation.	  The	   Services	  for	  Students	  with	  Disabilities	  (SSD)	  Office	  (G664	  Haven	  Hall;	  http://ssd.umich.edu/)	  
issues	  VISA	  forms.	  
	  
Audience	  Response	  System,	  i>clicker	   We	  will	  be	  using	  i>clicker	  to	  promote	  an	  interactive	  audience	  during	  lecture.	  You	  will	  not	  be	  
evaluated	  on	  your	  responses,	  but	  can	  earn	  bonus	  credit	  through	  participation.	  You	  will	  need	  
to	  purchase	  an	  i>clicker	  or	  i>clicker	  2	  remote	  from	  Computer	  Showcase	  or	  elsewhere	  and	   provide	  your	  remote	  ID	  on	  the	  CTools	  site.	  For	  technical	  reasons,	  a	  web>clicker	  (i>clicker	  
GO)	  subscription	  that	  will	  NOT	  be	  useable	  in	  this	  class.	  

